{
	"type": "apotheosis:attribute",
	"attribute": "apotheosis:arrow_velocity",
	"operation": "MULTIPLY_BASE",
	"values": {
		"common": {
			"min": 0.05,
			"steps": 5,
			"step": 0.01
		},
		"uncommon": {
			"min": 0.07,
			"steps": 5,
			"step": 0.01
		},
		"rare": {
			"min": 0.09,
			"steps": 10,
			"step": 0.01
		},
		"epic": {
			"min": 0.12,
			"steps": 10,
			"step": 0.01
		},
		"mythic": {
			"min": 0.14,
			"steps": 10,
			"step": 0.01
		},
		"ancient": {
			"min": 0.16,
			"steps": 15,
			"step": 0.01
		}
	},
	"types": [
		"BOW",
		"CROSSBOW",
		"TRIDENT"
	]
}